﻿Ano,Mercado preços corrente (R$ milhões),Mercado preços constantes,Taxa de crescimento real,Exemplares mercado (milhões),Preço médio corrente,Preço médio constante,Participação vendas ao mercado,Governo preços  corrente,Governo preços  constantes,Exemplares  Governo (milhões),Preço médio corrente,Preço médio constante,Participação vendas ao  governo,Total (R$ milhões de 2018)
2006,585.87,1142.79,4.1,18.11,32.35,63.1,99.99%,0.08,0.15,0.004,21.11,41.18,0.01%,1142.94
2007,586.35,1094.89,-4.19,19.04,30.8,57.5,100.00%,0,0,0,-,-,0.00%,1094.89
2008,664.93,1172.45,7.08,20.41,32.58,57.44,99.93%,0.45,0.79,0.08,6,10.58,0.10%,1173.24
2009,712.25,1204,2.69,24.69,28.85,48.76,98.69%,9.43,15.94,0.84.0,11.23,18.98,1.30%,1219.94
2010,735.21,1173.46,-2.54,25.67,28.64,45.71,99.45%,4.08,6.51,30.1,13.45,21.47,0.60%,1179.96
2011,891.77,1336.47,13.89,34.37,25.95,38.88,97.99%,18.29,27.41,48,12.4,18.58,2.00%,1363.88
2012,951.18,1346.85,0.78,34.77,27.36,38.74,99.34%,6.34,8.98,68.1.72,9.36,13.26,0.70%,1355.83
2013,1001.99,1339.62,-0.54,33.68,29.75,39.78,98.77%,12.51,16.72,3.46,7.27,9.72,1.20%,1356.34
2014,1061.46,1333.64,-0.45,31.62,33.57,42.18,98.10%,20.54,25.8,0.05,5.93,7.46,1.90%,1359.44
2015,982.16,1115.04,-16.39,26.39,37.22,42.26,99.91%,0.87,0.99,0.17,19,21.57,0.10%,1116.03
2016,879.13,939,-15.79,21.85,40.23,42.98,99.86%,1.27,1.36,1.06,7.49,8,0.10%,940.36
2017,887.47,920.75,-1.94,19.81,44.8,46.48,99.30%,6.27,6.5,0.02,5.91,6.14,0.70%,927.26
2018,733.64,733.64,-20.32,15.78,46.48,46.48,99.96%,0.32,0.32,,17.92,17.92,0.04%,733.96
