Exemplares Vendidos

# Mercado

Ano,Setor,Didádico,Obras Gerais,Religiosos,CTP
2006,193.25,39.28,93.41,42.45,18.11
2007,209.15,45.12,94.15,50.84,19.04
2008,220.93,43.35,99.26,57.91,20.41
2009,238.86,50.96,100.53,62.68,24.69
2010,258.7,58.28,100.95,73.8,25.67
2011,283.98,60.6,101.21,87.8,34.37
2012,268.56,53.88,108.95,70.96,34.77
2013,279.64,51.79,121.67,72.5,33.68
2014,277.39,57.26,115.07,73.44,31.62
2015,254.7,50.77,109.13,68.41,26.39
2016,226.62,47.96,97.1,59.71,21.85
2017,222.33,44.2,97.39,60.93,19.81
2018,202.68,39.5,87.98,59.42,15.78

# Governo

Ano,Setor,Didádico,Obras Gerais,Religiosos,CTP
2006,125.31,96.91,28.4,0,0.004
2007,128.94,123.65,5.29,0,0
2008,121.72,107.55,13.82,0.27,0.08
2009,148.28,124.61,22.35,0.48,0.84
2010,179.24,144.38,34.28,0.28,0.30
2011,185.48,166.37,15.99,1.65,1.48
2012,166.36,150.15,13.24,2.29,0.68
2013,200.31,169.05,28.19,1.35,1.72
2014,158.3,126.94,27.7,0.21,3.46
2015,134.59,128.62,5.91,0.01,0.05
2016,156.79,147.63,8.84,0.15,0.17
2017,132.6,114.89,16.42,0.24,1.06
2018,149.34,146.09,3.22,0.01,0.02

OBS: Checar ultima coluna (CTP) governo.



