Preço Médio Real - Vendas ao Mercado 

# Preços constantes 2018 (Preços Reais)

Ano,Setor,Didáticos,Obras Gerais,Religiosos,CTP
2006,27.74,45.11,19.91,13.83,63.1
2007,26.11,42.2,19.37,12.57,57.5
2008,24.87,42.69,17.77,12.24,57.44
2009,23.01,35.74,17.86,10.76,48.76
2010,20.66,30.19,16.07,10.69,45.71
2011,18.2,29.41,13.38,7.93,38.88
2012,19.34,34.12,12.67,8.87,38.74
2013,18.57,33.74,11.6,9.59,39.78
2014,18.89,31.74,12.05,9.55,42.18
2015,17.84,30.99,11.19,9.28,42.26
2016,18.25,32,11.26,9.54,42.98
2017,18.44,34.05,11.24,9.5,46.48
2018,18.19,34.65,11.6,9.49,46.48

# Preços correntes (Preços Nominais)

Ano,Setor,Didáticos,Obras Gerais,Religiosos,CTP
2006,14.22,23.13,10.21,7.09,32.35
2007,13.98,22.6,10.37,6.73,30.8
2008,14.11,24.21,10.08,6.94,32.58
2009,13.61,21.14,10.57,6.36,28.85
2010,12.94,18.91,10.07,6.7,28.64
2011,12.15,19.62,8.93,5.29,25.95
2012,13.66,24.1,8.94,6.26,27.36
2013,13.89,25.24,8.68,7.17,29.75
2014,15.03,25.26,9.59,7.6,33.57
2015,15.72,27.3,9.86,8.17,37.22
2016,17.09,29.96,10.54,8.93,40.23
2017,17.77,32.82,10.83,9.15,44.8
2018,18.19,34.65,11.6,9.49,46.48

OBS: Checar os preços correntes (preços nominais)




